<?xml version="1.0" encoding="UTF-8"?>
<svg width="20px" height="12px" viewBox="0 0 20 12" version="1.1" xmlns="http://www.w3.org/2000/svg" xmlns:xlink="http://www.w3.org/1999/xlink">
    <!-- Generator: Sketch 51.3 (57544) - http://www.bohemiancoding.com/sketch -->
    <title>Stroke 1</title>
    <desc>Created with Sketch.</desc>
    <defs></defs>
    <g id="Design" stroke="none" stroke-width="1" fill="none" fill-rule="evenodd">
        <g id="selected_photo_editorial-copy" transform="translate(-669.000000, -664.000000)" stroke="#1B1B1B">
            <g id="Group-4" transform="translate(282.000000, 661.000000)">
                <g id="Group-3" transform="translate(290.000000, 0.000000)">
                    <g id="Stroke-1" transform="translate(97.000000, 3.000000)">
                        <polyline points="13 0 16 3.00011036 19 5.99977927 16 8.99988964 13 12"></polyline>
                        <path d="M19,6 L0,6" id="Stroke-3"></path>
                    </g>
                </g>
            </g>
        </g>
    </g>
</svg>
