
<svg width="54px" height="47px" viewBox="0 0 54 47" version="1.1" xmlns="http://www.w3.org/2000/svg" xmlns:xlink="http://www.w3.org/1999/xlink">
    <!-- Generator: Sketch 51.3 (57544) - http://www.bohemiancoding.com/sketch -->
    <desc>Created with Sketch.</desc>
    <defs></defs>
    <g id="Design" stroke="none" stroke-width="1" fill="none" fill-rule="evenodd" font-family="AkkuratPro-Bold, Akkurat Pro" font-size="150" font-weight="bold">
        <g id="selected_Interview-Copy-2" transform="translate(-128.000000, -571.000000)" fill="#000000">
            <g id="global-1-paragraph-sound-quote" transform="translate(119.000000, 562.000000)">
                <text id="“-copy-2">
                    <tspan x="1.52056145e-12" y="117">“</tspan>
                </text>
            </g>
        </g>
    </g>
</svg>
